EDLD 651: Fall 2023 - Week 3: Data Visualization
…
What are some good candidate data for line plots?

. . .

+ observed versus model-implied (estimated)

geom_line()

Classic time series example

economics data from {ggplot2}

economics

# A tibble: 574 × 6
   date         pce    pop psavert uempmed unemploy
   <date>     <dbl>  <dbl>   <dbl>   <dbl>    <dbl>
 1 1967-07-01  507. 198712    12.6     4.5     2944
 2 1967-08-01  510. 198911    12.6     4.7     2945
 3 1967-09-01  516. 199113    11.9     4.6     2958
 4 1967-10-01  512. 199311    12.9     4.9     3143
 5 1967-11-01  517. 199498    12.8     4.7     3066
 6 1967-12-01  525. 199657    11.8     4.8     3018
 7 1968-01-01  531. 199808    11.7     5.1     2878
 8 1968-02-01  534. 199920    12.3     4.5     3001
 9 1968-03-01  544. 200056    11.7     4.1     2877
10 1968-04-01  544  200208    12.3     4.6     2709
# ℹ 564 more rows
…
Data

{fivethirtyeight} package

dataset is college_grad_students

theme_set(theme_minimal(base_size = 16))

#install.packages("fivethirtyeight")
library(fivethirtyeight)
# View(college_grad_students)
grad <- college_grad_students # simpler reference
grad

# A tibble: 173 × 22
   major_code major     major_category grad_total grad_sample_size grad_employed
        <int> <chr>     <chr>               <int>            <int>         <int>
 1       5601 Construc… Industrial Ar…       9173              200          7098
 2       6004 Commerci… Arts                53864              882         40492
 3       6211 Hospital… Business            24417              437         18368
 4       2201 Cosmetol… Industrial Ar…       5411               72          3590
 5       2001 Communic… Computers & M…       9109              171          7512
 6       3201 Court Re… Law & Public …       1542               22          1008
 7       6206 Marketin… Business           190996             3738        151570
 8       1101 Agricult… Agriculture &…      17488              386         13104
 9       2101 Computer… Computers & M…       5611               98          4716
10       1904 Advertis… Communication…      33928              688         28517
# ℹ 163 more rows
# ℹ 16 more variables: grad_employed_fulltime_yearround <int>,
#   grad_unemployed <int>, grad_unemployment_rate <dbl>, grad_p25th <dbl>,
#   grad_median <dbl>, grad_p75th <int>, nongrad_total <int>,
#   nongrad_employed <int>, nongrad_employed_fulltime_yearround <int>,
#   nongrad_unemployed <int>, nongrad_unemployment_rate <dbl>,
#   nongrad_p25th <dbl>, nongrad_median <dbl>, nongrad_p75th <dbl>, …
…
Candy rankings {fivethirtyeight}

candy <- candy_rankings %>% 
  pivot_longer(
    cols = chocolate:pluribus,
    names_to = "type",
    values_to = "foo") %>% 
  filter(foo) %>% 
  select(-foo)

candy

# A tibble: 197 × 5
   competitorname sugarpercent pricepercent winpercent type            
   <chr>                 <dbl>        <dbl>      <dbl> <chr>           
 1 100 Grand             0.732        0.860       67.0 chocolate       
 2 100 Grand             0.732        0.860       67.0 caramel         
 3 100 Grand             0.732        0.860       67.0 crispedricewafer
 4 100 Grand             0.732        0.860       67.0 bar             
 5 3 Musketeers          0.604        0.511       67.6 chocolate       
 6 3 Musketeers          0.604        0.511       67.6 nougat          
 7 3 Musketeers          0.604        0.511       67.6 bar             
 8 Air Heads             0.906        0.511       52.3 fruity          
 9 Almond Joy            0.465        0.767       50.3 chocolate       
10 Almond Joy            0.465        0.767       50.3 peanutyalmondy  
# ℹ 187 more rows
…
