EDLD 651: Fall 2023 - Week 4: Data Wrangling
…
Use select to order columns

library(fivethirtyeight)
college_grad_students

# A tibble: 173 × 22
   major_code major     major_category grad_total grad_sample_size grad_employed
        <int> <chr>     <chr>               <int>            <int>         <int>
 1       5601 Construc… Industrial Ar…       9173              200          7098
 2       6004 Commerci… Arts                53864              882         40492
 3       6211 Hospital… Business            24417              437         18368
 4       2201 Cosmetol… Industrial Ar…       5411               72          3590
 5       2001 Communic… Computers & M…       9109              171          7512
 6       3201 Court Re… Law & Public …       1542               22          1008
 7       6206 Marketin… Business           190996             3738        151570
 8       1101 Agricult… Agriculture &…      17488              386         13104
 9       2101 Computer… Computers & M…       5611               98          4716
10       1904 Advertis… Communication…      33928              688         28517
# ℹ 163 more rows
# ℹ 16 more variables: grad_employed_fulltime_yearround <int>,
#   grad_unemployed <int>, grad_unemployment_rate <dbl>, grad_p25th <dbl>,
#   grad_median <dbl>, grad_p75th <int>, nongrad_total <int>,
#   nongrad_employed <int>, nongrad_employed_fulltime_yearround <int>,
#   nongrad_unemployed <int>, nongrad_unemployment_rate <dbl>,
#   nongrad_p25th <dbl>, nongrad_median <dbl>, nongrad_p75th <dbl>, …
…
contains()

all_of()

any_of()

Helper functions

First: this code may not work for you - why?

reads <- read_csv(here("data", "Project_Reads_Scores.csv")) %>% 
  clean_names()
reads

# A tibble: 48 × 25
   test_year      test_type test_site student_id pre_test_score pre_test_percent
   <chr>          <chr>     <chr>     <chr>               <dbl> <chr>           
 1 06/01/2016 12… YEAR END  VIRDEN    Virden 1               43 29%             
 2 06/01/2016 12… YEAR END  VIRDEN    Virden 2               46 31%             
 3 06/01/2016 12… YEAR END  VIRDEN    Virden 3               39 26%             
 4 06/01/2016 12… YEAR END  VIRDEN    Virden 4               35 23%             
 5 06/01/2016 12… YEAR END  VIRDEN    Virden 5               46 31%             
 6 06/01/2016 12… YEAR END  VIRDEN    Virden 6               35 23%             
 7 06/01/2016 12… YEAR END  VIRDEN    Virden 7               40 27%             
 8 06/01/2016 12… YEAR END  VIRDEN    Virden 8               39 26%             
 9 06/01/2016 12… YEAR END  VIRDEN    Virden 9               40 27%             
10 06/01/2016 12… YEAR END  VIRDEN    Virden 10              45 30%             
# ℹ 38 more rows
# ℹ 19 more variables: post_test_score <dbl>, post_test_percent <chr>,
#   percentage_change <chr>, unit_1_score <dbl>, unit_1_percent <chr>,
#   unit_2_score <dbl>, unit_2_percent <chr>, unit_3_score <dbl>,
#   unit_3_percent <chr>, unit_4_score <dbl>, unit_4_percent <chr>,
#   unit_5_6_score <dbl>, unit_5_6_percent <chr>, unit_7_score <dbl>,
#   unit_7_percent <chr>, unit_8_score <dbl>, unit_8_percent <chr>, …

Use select to order columns

college_grad_students %>%
    select(major_code, grad_total, grad_sample_size, everything())

# A tibble: 173 × 22
   major_code grad_total grad_sample_size major     major_category grad_employed
        <int>      <int>            <int> <chr>     <chr>                  <int>
 1       5601       9173              200 Construc… Industrial Ar…          7098
 2       6004      53864              882 Commerci… Arts                   40492
 3       6211      24417              437 Hospital… Business               18368
 4       2201       5411               72 Cosmetol… Industrial Ar…          3590
 5       2001       9109              171 Communic… Computers & M…          7512
 6       3201       1542               22 Court Re… Law & Public …          1008
 7       6206     190996             3738 Marketin… Business              151570
 8       1101      17488              386 Agricult… Agriculture &…         13104
 9       2101       5611               98 Computer… Computers & M…          4716
10       1904      33928              688 Advertis… Communication…         28517
# ℹ 163 more rows
# ℹ 16 more variables: grad_employed_fulltime_yearround <int>,
#   grad_unemployed <int>, grad_unemployment_rate <dbl>, grad_p25th <dbl>,
#   grad_median <dbl>, grad_p75th <int>, nongrad_total <int>,
#   nongrad_employed <int>, nongrad_employed_fulltime_yearround <int>,
#   nongrad_unemployed <int>, nongrad_unemployment_rate <dbl>,
#   nongrad_p25th <dbl>, nongrad_median <dbl>, nongrad_p75th <dbl>, …

everything() is a helper verb that includes all column names

starts_with()

reads %>% 
    select(starts_with("test"))

# A tibble: 48 × 3
   test_year              test_type test_site
   <chr>                  <chr>     <chr>    
 1 06/01/2016 12:00:00 AM YEAR END  VIRDEN   
 2 06/01/2016 12:00:00 AM YEAR END  VIRDEN   
 3 06/01/2016 12:00:00 AM YEAR END  VIRDEN   
 4 06/01/2016 12:00:00 AM YEAR END  VIRDEN   
 5 06/01/2016 12:00:00 AM YEAR END  VIRDEN   
 6 06/01/2016 12:00:00 AM YEAR END  VIRDEN   
 7 06/01/2016 12:00:00 AM YEAR END  VIRDEN   
 8 06/01/2016 12:00:00 AM YEAR END  VIRDEN   
 9 06/01/2016 12:00:00 AM YEAR END  VIRDEN   
10 06/01/2016 12:00:00 AM YEAR END  VIRDEN   
# ℹ 38 more rows

ends_with()

reads %>% 
    select(ends_with("score"))

# A tibble: 48 × 10
   pre_test_score post_test_score unit_1_score unit_2_score unit_3_score
            <dbl>           <dbl>        <dbl>        <dbl>        <dbl>
 1             43              92            3            4            6
 2             46             104            5            5            6
 3             39              75            4            4            6
 4             35             115            4            4            6
 5             46              85            2            5            6
 6             35              91            5            5            7
 7             40              96            5            5            6
 8             39              74            4            5            5
 9             40              90            6            4            5
10             45              86            4            5            5
# ℹ 38 more rows
# ℹ 5 more variables: unit_4_score <dbl>, unit_5_6_score <dbl>,
#   unit_7_score <dbl>, unit_8_score <dbl>, total_score <dbl>

contains()

reads %>% 
    select(contains("test"))

# A tibble: 48 × 7
   test_year test_type test_site pre_test_score pre_test_percent post_test_score
   <chr>     <chr>     <chr>              <dbl> <chr>                      <dbl>
 1 06/01/20… YEAR END  VIRDEN                43 29%                           92
 2 06/01/20… YEAR END  VIRDEN                46 31%                          104
 3 06/01/20… YEAR END  VIRDEN                39 26%                           75
 4 06/01/20… YEAR END  VIRDEN                35 23%                          115
 5 06/01/20… YEAR END  VIRDEN                46 31%                           85
 6 06/01/20… YEAR END  VIRDEN                35 23%                           91
 7 06/01/20… YEAR END  VIRDEN                40 27%                           96
 8 06/01/20… YEAR END  VIRDEN                39 26%                           74
 9 06/01/20… YEAR END  VIRDEN                40 27%                           90
10 06/01/20… YEAR END  VIRDEN                45 30%                           86
# ℹ 38 more rows
# ℹ 1 more variable: post_test_percent <chr>

all_of()

vars <- c("pre_test_score", "pre_test_percent", "post_test_score", "post_test_percent")

reads %>% 
    select(all_of(vars))

# A tibble: 48 × 4
   pre_test_score pre_test_percent post_test_score post_test_percent
            <dbl> <chr>                      <dbl> <chr>            
 1             43 29%                           92 61%              
 2             46 31%                          104 69%              
 3             39 26%                           75 50%              
 4             35 23%                          115 77%              
 5             46 31%                           85 57%              
 6             35 23%                           91 61%              
 7             40 27%                           96 64%              
 8             39 26%                           74 49%              
 9             40 27%                           90 60%              
10             45 30%                           86 57%              
# ℹ 38 more rows
…
mpg %>% #<<
    select(all_of(vars))

Error in `all_of()`:
! Can't subset columns that don't exist.
✖ Columns `pre_test_score`, `pre_test_percent`, `post_test_score`, and `post_test_percent` don't exist.

any_of()

vars <- c("pre_test_score", "pre_test_percent", "post_test_score", "post_test_percent")

reads %>% 
    select(any_of(vars))

# A tibble: 48 × 4
   pre_test_score pre_test_percent post_test_score post_test_percent
            <dbl> <chr>                      <dbl> <chr>            
 1             43 29%                           92 61%              
 2             46 31%                          104 69%              
 3             39 26%                           75 50%              
 4             35 23%                          115 77%              
 5             46 31%                           85 57%              
 6             35 23%                           91 61%              
 7             40 27%                           96 64%              
 8             39 26%                           74 49%              
 9             40 27%                           90 60%              
10             45 30%                           86 57%              
# ℹ 38 more rows
…
vars <- c("pre_test_score", "pre_test_percent", "post_test_score", "post_test_percent")

mpg %>% #<<
    select(any_of(vars))

# A tibble: 234 × 0

Mix select methods and helpers

You can mix types and helper functions

reads %>% 
    select(student_id, 1, starts_with("total"))

# A tibble: 48 × 4
   student_id test_year              total_score total_percent_correct
   <chr>      <chr>                        <dbl> <chr>                
 1 Virden 1   06/01/2016 12:00:00 AM         207 41%                  
 2 Virden 2   06/01/2016 12:00:00 AM         224 45%                  
 3 Virden 3   06/01/2016 12:00:00 AM         193 39%                  
 4 Virden 4   06/01/2016 12:00:00 AM         223 45%                  
 5 Virden 5   06/01/2016 12:00:00 AM         198 40%                  
 6 Virden 6   06/01/2016 12:00:00 AM         210 42%                  
 7 Virden 7   06/01/2016 12:00:00 AM         211 42%                  
 8 Virden 8   06/01/2016 12:00:00 AM         180 36%                  
 9 Virden 9   06/01/2016 12:00:00 AM         206 41%                  
10 Virden 10  06/01/2016 12:00:00 AM         206 41%                  
# ℹ 38 more rows

Mix select methods and helpers

You can also use select to rearrange your columns

reads %>% 
    select(student_id, 1, starts_with("total"), everything())

# A tibble: 48 × 25
   student_id test_year    total_score total_percent_correct test_type test_site
   <chr>      <chr>              <dbl> <chr>                 <chr>     <chr>    
 1 Virden 1   06/01/2016 …         207 41%                   YEAR END  VIRDEN   
 2 Virden 2   06/01/2016 …         224 45%                   YEAR END  VIRDEN   
 3 Virden 3   06/01/2016 …         193 39%                   YEAR END  VIRDEN   
 4 Virden 4   06/01/2016 …         223 45%                   YEAR END  VIRDEN   
 5 Virden 5   06/01/2016 …         198 40%                   YEAR END  VIRDEN   
 6 Virden 6   06/01/2016 …         210 42%                   YEAR END  VIRDEN   
 7 Virden 7   06/01/2016 …         211 42%                   YEAR END  VIRDEN   
 8 Virden 8   06/01/2016 …         180 36%                   YEAR END  VIRDEN   
 9 Virden 9   06/01/2016 …         206 41%                   YEAR END  VIRDEN   
10 Virden 10  06/01/2016 …         206 41%                   YEAR END  VIRDEN   
# ℹ 38 more rows
# ℹ 19 more variables: pre_test_score <dbl>, pre_test_percent <chr>,
#   post_test_score <dbl>, post_test_percent <chr>, percentage_change <chr>,
#   unit_1_score <dbl>, unit_1_percent <chr>, unit_2_score <dbl>,
#   unit_2_percent <chr>, unit_3_score <dbl>, unit_3_percent <chr>,
#   unit_4_score <dbl>, unit_4_percent <chr>, unit_5_6_score <dbl>,
#   unit_5_6_percent <chr>, unit_7_score <dbl>, unit_7_percent <chr>, …
…
:::

::::

Image from Wickham & Grolemund (2017)

filter() numeric

note the use of == NOT =

mpg %>% 
  filter(cyl == 4)

# A tibble: 81 × 11
   manufacturer model      displ  year   cyl trans drv     cty   hwy fl    class
   <chr>        <chr>      <dbl> <int> <int> <chr> <chr> <int> <int> <chr> <chr>
 1 audi         a4           1.8  1999     4 auto… f        18    29 p     comp…
 2 audi         a4           1.8  1999     4 manu… f        21    29 p     comp…
 3 audi         a4           2    2008     4 manu… f        20    31 p     comp…
 4 audi         a4           2    2008     4 auto… f        21    30 p     comp…
 5 audi         a4 quattro   1.8  1999     4 manu… 4        18    26 p     comp…
 6 audi         a4 quattro   1.8  1999     4 auto… 4        16    25 p     comp…
 7 audi         a4 quattro   2    2008     4 manu… 4        20    28 p     comp…
 8 audi         a4 quattro   2    2008     4 auto… 4        19    27 p     comp…
 9 chevrolet    malibu       2.4  1999     4 auto… f        19    27 r     mids…
10 chevrolet    malibu       2.4  2008     4 auto… f        22    30 r     mids…
# ℹ 71 more rows

:::

:::

mpg %>% 
  filter(hwy >= 22)

# A tibble: 143 × 11
   manufacturer model      displ  year   cyl trans drv     cty   hwy fl    class
   <chr>        <chr>      <dbl> <int> <int> <chr> <chr> <int> <int> <chr> <chr>
 1 audi         a4           1.8  1999     4 auto… f        18    29 p     comp…
 2 audi         a4           1.8  1999     4 manu… f        21    29 p     comp…
 3 audi         a4           2    2008     4 manu… f        20    31 p     comp…
 4 audi         a4           2    2008     4 auto… f        21    30 p     comp…
 5 audi         a4           2.8  1999     6 auto… f        16    26 p     comp…
 6 audi         a4           2.8  1999     6 manu… f        18    26 p     comp…
 7 audi         a4           3.1  2008     6 auto… f        18    27 p     comp…
 8 audi         a4 quattro   1.8  1999     4 manu… 4        18    26 p     comp…
 9 audi         a4 quattro   1.8  1999     4 auto… 4        16    25 p     comp…
10 audi         a4 quattro   2    2008     4 manu… 4        20    28 p     comp…
# ℹ 133 more rows
…
The order of operations doesn’t work like English

Can’t write:

filter(presidential, name == "Kennedy" | "Johnson")

Must be:

filter(presidential, name == "Kennedy" | name == "Johnson")

more filter()

reads

# A tibble: 48 × 25
   test_year      test_type test_site student_id pre_test_score pre_test_percent
   <chr>          <chr>     <chr>     <chr>               <dbl> <chr>           
 1 06/01/2016 12… YEAR END  VIRDEN    Virden 1               43 29%             
 2 06/01/2016 12… YEAR END  VIRDEN    Virden 2               46 31%             
 3 06/01/2016 12… YEAR END  VIRDEN    Virden 3               39 26%             
 4 06/01/2016 12… YEAR END  VIRDEN    Virden 4               35 23%             
 5 06/01/2016 12… YEAR END  VIRDEN    Virden 5               46 31%             
 6 06/01/2016 12… YEAR END  VIRDEN    Virden 6               35 23%             
 7 06/01/2016 12… YEAR END  VIRDEN    Virden 7               40 27%             
 8 06/01/2016 12… YEAR END  VIRDEN    Virden 8               39 26%             
 9 06/01/2016 12… YEAR END  VIRDEN    Virden 9               40 27%             
10 06/01/2016 12… YEAR END  VIRDEN    Virden 10              45 30%             
# ℹ 38 more rows
# ℹ 19 more variables: post_test_score <dbl>, post_test_percent <chr>,
#   percentage_change <chr>, unit_1_score <dbl>, unit_1_percent <chr>,
#   unit_2_score <dbl>, unit_2_percent <chr>, unit_3_score <dbl>,
#   unit_3_percent <chr>, unit_4_score <dbl>, unit_4_percent <chr>,
#   unit_5_6_score <dbl>, unit_5_6_percent <chr>, unit_7_score <dbl>,
#   unit_7_percent <chr>, unit_8_score <dbl>, unit_8_percent <chr>, …

more filter()

Anomaly in the data

reads %>%
 count(student_id)

# A tibble: 46 × 2
   student_id                 n
   <chr>                  <int>
 1 All Students (Average)     3
 2 Jones 1                    1
 3 Jones 10                   1
 4 Jones 11                   1
 5 Jones 12                   1
 6 Jones 13                   1
 7 Jones 14                   1
 8 Jones 15                   1
 9 Jones 2                    1
10 Jones 3                    1
# ℹ 36 more rows

Let’s remove these aggregate rows

students_only <- reads %>%
  filter(student_id != "All Students (Average)") 

students_only %>% 
  count(student_id)

# A tibble: 45 × 2
   student_id     n
   <chr>      <int>
 1 Jones 1        1
 2 Jones 10       1
 3 Jones 11       1
 4 Jones 12       1
 5 Jones 13       1
 6 Jones 14       1
 7 Jones 15       1
 8 Jones 2        1
 9 Jones 3        1
10 Jones 4        1
# ℹ 35 more rows
…
Note the lovely indentations and line breaks to help keep things straight

mutate()

Some new data

(prepost <- reads %>% 
  select(student_id, test_site, pre_test_score, post_test_score))

# A tibble: 48 × 4
   student_id test_site pre_test_score post_test_score
   <chr>      <chr>              <dbl>           <dbl>
 1 Virden 1   VIRDEN                43              92
 2 Virden 2   VIRDEN                46             104
 3 Virden 3   VIRDEN                39              75
 4 Virden 4   VIRDEN                35             115
 5 Virden 5   VIRDEN                46              85
 6 Virden 6   VIRDEN                35              91
 7 Virden 7   VIRDEN                40              96
 8 Virden 8   VIRDEN                39              74
 9 Virden 9   VIRDEN                40              90
10 Virden 10  VIRDEN                45              86
# ℹ 38 more rows

mutate()

Add a variable

prepost %>% 
  mutate(gain = post_test_score - pre_test_score)

# A tibble: 48 × 5
   student_id test_site pre_test_score post_test_score  gain
   <chr>      <chr>              <dbl>           <dbl> <dbl>
 1 Virden 1   VIRDEN                43              92    49
 2 Virden 2   VIRDEN                46             104    58
 3 Virden 3   VIRDEN                39              75    36
 4 Virden 4   VIRDEN                35             115    80
 5 Virden 5   VIRDEN                46              85    39
 6 Virden 6   VIRDEN                35              91    56
 7 Virden 7   VIRDEN                40              96    56
 8 Virden 8   VIRDEN                39              74    35
 9 Virden 9   VIRDEN                40              90    50
10 Virden 10  VIRDEN                45              86    41
# ℹ 38 more rows
…
