EDLD 651: Fall 2023 - Week 7: Mutating Joins
…
Foreign keys: uniquely identify observations in other datasets

What’s the primary key here?

First, let’s break down the code:

library(rio)
library(here)
ecls <- import(here("data", "ecls-k_samp.sav")) %>% 
  as_tibble() %>% 
  characterize()

. . .

# A tibble: 984 × 33
   child_id teacher_id school_id k_type school_type sex   ethnic famtype numsibs
   <chr>    <chr>      <chr>     <chr>  <chr>       <chr> <chr>  <chr>     <dbl>
 1 0842021C 0842T02    0842      full-… public      male  BLACK… BIOLOG…       1
 2 0905002C 0905T01    0905      full-… private     male  ASIAN  BIOLOG…       1
 3 0150012C 0150T01    0150      full-… private     fema… BLACK… BIOLOG…       4
 4 0556009C 0556T01    0556      full-… private     fema… HISPA… BIOLOG…       0
 5 0089013C 0089T04    0089      full-… public      male  WHITE… BIOLOG…       4
 6 1217001C 1217T13    1217      half-… public      fema… NATIV… BIOLOG…       0
 7 1092008C 1092T01    1092      half-… public      fema… HISPA… BIOLOG…       2
 8 0083007C 0083T16    0083      full-… public      male  WHITE… BIOLOG…       1
 9 1091005C 1091T02    1091      half-… private     male  WHITE… BIOLOG…       0
10 2006006C 2006T01    2006      full-… private     male  WHITE… BIOLOG…       1
# ℹ 974 more rows
# ℹ 24 more variables: SES_cont <dbl>, SES_cat <chr>, age <dbl>,
#   T1RSCALE <dbl>, T1MSCALE <dbl>, T1GSCALE <dbl>, T2RSCALE <dbl>,
#   T2MSCALE <dbl>, T2GSCALE <dbl>, IRTreadgain <dbl>, IRTmathgain <dbl>,
#   IRTgkgain <dbl>, T1ARSLIT <dbl>, T1ARSMAT <dbl>, T1ARSGEN <dbl>,
#   T2ARSLIT <dbl>, T2ARSMAT <dbl>, T2ARSGEN <dbl>, ARSlitgain <dbl>,
#   ARSmathgain <dbl>, ARSgkgain <dbl>, testdate1 <date>, testdate2 <date>, …

Let’s verify the key

ecls %>% 
  count(child_id)

# A tibble: 984 × 2
   child_id     n
   <chr>    <int>
 1 0001010C     1
 2 0002010C     1
 3 0009005C     1
 4 0009014C     1
 5 0009026C     1
 6 0013003C     1
 7 0016004C     1
 8 0016009C     1
 9 0022005C     1
10 0022014C     1
# ℹ 974 more rows
…
Create a key

If there is no key, it’s often helpful to add one

These are called surrogate keys

flights2 <- flights %>% 
  rowid_to_column()

flights2 %>% 
  select(1:3, ncol(flights))

# A tibble: 336,776 × 4
   rowid  year month minute
   <int> <int> <int>  <dbl>
 1     1  2013     1     15
 2     2  2013     1     29
 3     3  2013     1     40
 4     4  2013     1     45
 5     5  2013     1      0
 6     6  2013     1     58
 7     7  2013     1      0
 8     8  2013     1      0
 9     9  2013     1      0
10    10  2013     1      0
# ℹ 336,766 more rows
…
Join the tables

left_join(dis_tbl, dis_code_tbl)

Joining with `by = join_by(dis_code)`

# A tibble: 200 × 4
     sid dis_code score disability               
   <int> <chr>    <int> <chr>                    
 1     1 74         190 Traumatic Brain Injury   
 2     2 40         200 Visual Impairment        
 3     3 60         200 Emotional Disturbance    
 4     4 00         183 Not Applicable           
 5     5 10         210 Intellectual Disability  
 6     6 96         188 Developmental Delay 0-2yr
 7     7 60         203 Emotional Disturbance    
 8     8 82         204 Autism Spectrum Disorder 
 9     9 98         201 Developmental Delay 3-4yr
10    10 10         198 Intellectual Disability  
# ℹ 190 more rows
…
left_join(stu, seasonal_means) 

# A tibble: 27 × 5
     sid  scid score season   mean
   <int> <dbl> <dbl> <chr>   <dbl>
 1     1     1    10 fall    0.345
 2     1     1    10 winter  1.54 
 3     1     1    10 spring -0.330
 4     2     1    12 fall    0.345
 5     2     1    12 winter  1.54 
 6     2     1    12 spring -0.330
 7     3     1    15 fall    0.345
 8     3     1    15 winter  1.54 
 9     3     1    15 spring -0.330
10     4     1     8 fall    0.345
# ℹ 17 more rows
…
weather[1:2, ]

# A tibble: 2 × 15
  origin  year month   day  hour  temp  dewp humid wind_dir wind_speed wind_gust
  <chr>  <int> <int> <int> <int> <dbl> <dbl> <dbl>    <dbl>      <dbl>     <dbl>
1 EWR     2013     1     1     1  39.0  26.1  59.4      270      10.4         NA
2 EWR     2013     1     1     2  39.0  27.0  61.6      250       8.06        NA
# ℹ 4 more variables: precip <dbl>, pressure <dbl>, visib <dbl>,
#   time_hour <dttm>

left_join(flights2, weather)

Joining with `by = join_by(year, month, day, hour, origin)`

# A tibble: 336,776 × 18
    year month   day  hour origin dest  tailnum carrier  temp  dewp humid
   <int> <int> <int> <dbl> <chr>  <chr> <chr>   <chr>   <dbl> <dbl> <dbl>
 1  2013     1     1     5 EWR    IAH   N14228  UA       39.0  28.0  64.4
 2  2013     1     1     5 LGA    IAH   N24211  UA       39.9  25.0  54.8
 3  2013     1     1     5 JFK    MIA   N619AA  AA       39.0  27.0  61.6
 4  2013     1     1     5 JFK    BQN   N804JB  B6       39.0  27.0  61.6
 5  2013     1     1     6 LGA    ATL   N668DN  DL       39.9  25.0  54.8
 6  2013     1     1     5 EWR    ORD   N39463  UA       39.0  28.0  64.4
 7  2013     1     1     6 EWR    FLL   N516JB  B6       37.9  28.0  67.2
 8  2013     1     1     6 LGA    IAD   N829AS  EV       39.9  25.0  54.8
 9  2013     1     1     6 JFK    MCO   N593JB  B6       37.9  27.0  64.3
10  2013     1     1     6 LGA    ORD   N3ALAA  AA       39.9  25.0  54.8
# ℹ 336,766 more rows
# ℹ 7 more variables: wind_dir <dbl>, wind_speed <dbl>, wind_gust <dbl>,
#   precip <dbl>, pressure <dbl>, visib <dbl>, time_hour <dttm>
…
Specify *_join() keys

Specify the key variables with join_by() (a function not an argument)

left_join(flights2, planes)

# A tibble: 336,776 × 15
    year month   day  hour origin dest  tailnum carrier type  manufacturer model
   <int> <int> <int> <dbl> <chr>  <chr> <chr>   <chr>   <chr> <chr>        <chr>
 1  2013     1     1     5 EWR    IAH   N14228  UA      <NA>  <NA>         <NA> 
 2  2013     1     1     5 LGA    IAH   N24211  UA      <NA>  <NA>         <NA> 
 3  2013     1     1     5 JFK    MIA   N619AA  AA      <NA>  <NA>         <NA> 
 4  2013     1     1     5 JFK    BQN   N804JB  B6      <NA>  <NA>         <NA> 
 5  2013     1     1     6 LGA    ATL   N668DN  DL      <NA>  <NA>         <NA> 
 6  2013     1     1     5 EWR    ORD   N39463  UA      <NA>  <NA>         <NA> 
 7  2013     1     1     6 EWR    FLL   N516JB  B6      <NA>  <NA>         <NA> 
 8  2013     1     1     6 LGA    IAD   N829AS  EV      <NA>  <NA>         <NA> 
 9  2013     1     1     6 JFK    MCO   N593JB  B6      <NA>  <NA>         <NA> 
10  2013     1     1     6 LGA    ORD   N3ALAA  AA      <NA>  <NA>         <NA> 
# ℹ 336,766 more rows
# ℹ 4 more variables: engines <int>, seats <int>, speed <int>, engine <chr>

left_join(flights2, planes, join_by(tailnum))

# A tibble: 336,776 × 16
   year.x month   day  hour origin dest  tailnum carrier year.y type            
    <int> <int> <int> <dbl> <chr>  <chr> <chr>   <chr>    <int> <chr>           
 1   2013     1     1     5 EWR    IAH   N14228  UA        1999 Fixed wing mult…
 2   2013     1     1     5 LGA    IAH   N24211  UA        1998 Fixed wing mult…
 3   2013     1     1     5 JFK    MIA   N619AA  AA        1990 Fixed wing mult…
 4   2013     1     1     5 JFK    BQN   N804JB  B6        2012 Fixed wing mult…
 5   2013     1     1     6 LGA    ATL   N668DN  DL        1991 Fixed wing mult…
 6   2013     1     1     5 EWR    ORD   N39463  UA        2012 Fixed wing mult…
 7   2013     1     1     6 EWR    FLL   N516JB  B6        2000 Fixed wing mult…
 8   2013     1     1     6 LGA    IAD   N829AS  EV        1998 Fixed wing mult…
 9   2013     1     1     6 JFK    MCO   N593JB  B6        2004 Fixed wing mult…
10   2013     1     1     6 LGA    ORD   N3ALAA  AA          NA <NA>            
# ℹ 336,766 more rows
# ℹ 6 more variables: manufacturer <chr>, model <chr>, engines <int>,
#   seats <int>, speed <int>, engine <chr>

left_join(flights2, planes, join_by(tailnum), suffix = c("_flights", "_planes"))

# A tibble: 336,776 × 16
   year_flights month   day  hour origin dest  tailnum carrier year_planes type 
          <int> <int> <int> <dbl> <chr>  <chr> <chr>   <chr>         <int> <chr>
 1         2013     1     1     5 EWR    IAH   N14228  UA             1999 Fixe…
 2         2013     1     1     5 LGA    IAH   N24211  UA             1998 Fixe…
 3         2013     1     1     5 JFK    MIA   N619AA  AA             1990 Fixe…
 4         2013     1     1     5 JFK    BQN   N804JB  B6             2012 Fixe…
 5         2013     1     1     6 LGA    ATL   N668DN  DL             1991 Fixe…
 6         2013     1     1     5 EWR    ORD   N39463  UA             2012 Fixe…
 7         2013     1     1     6 EWR    FLL   N516JB  B6             2000 Fixe…
 8         2013     1     1     6 LGA    IAD   N829AS  EV             1998 Fixe…
 9         2013     1     1     6 JFK    MCO   N593JB  B6             2004 Fixe…
10         2013     1     1     6 LGA    ORD   N3ALAA  AA               NA <NA> 
# ℹ 336,766 more rows
# ℹ 6 more variables: manufacturer <chr>, model <chr>, engines <int>,
#   seats <int>, speed <int>, engine <chr>
…
