EDLD 651: Fall 2023 - Homework 4
…
Compute the mean and standard deviation of winning percentage for each team

Order by winning percentage, greatest to least

Code

teams %>% 
  mutate(w_pct = w / (w + l)) %>% # FIRST - compute the winning percentage
  group_by(name) %>% 
  summarize(n = n(),
            mean_winning_pct = mean(w_pct, na.rm = TRUE), # compute the average winning percentage for each team
            sd_winning_pct = sd(w_pct, na.rm = TRUE)) %>% # compute the standard deviation of winning percentage for each team
  arrange(desc(mean_winning_pct)) # Order by highest winning percentage

# A tibble: 140 × 4
   name                         n mean_winning_pct sd_winning_pct
   <chr>                    <int>            <dbl>          <dbl>
 1 Boston Red Stockings         5            0.773         0.0911
 2 Cincinnati Outlaw Reds       1            0.657        NA     
 3 Boston Reds                  3            0.616         0.0790
 4 Providence Grays             8            0.609         0.0855
 5 Chicago White Stockings     17            0.609         0.117 
 6 Cincinnati Red Stockings     8            0.589         0.0640
 7 Boston Red Caps              7            0.579         0.0976
 8 New York Yankees           110            0.577         0.0685
 9 Brooklyn Ward's Wonders      1            0.576        NA     
10 Philadelphia Whites          3            0.574         0.0934
# ℹ 130 more rows
…
